Title: Buchausstellung in der Kita St. Michael

----

Location: Kita St. Michael

----

Date: 2018-04-16

----

Link:

----

Category: Kindergarteninterne Veranstaltung

----

Text:

----

Timestart:

----

Timeend:

----

Dateend: 2018-04-20

----

Showtime: true

----

Multipledays: true

----

Draft: 1
