Title: Buchausstellung im Kindergarten St. Blasius

----

Location: Kindergarten St. Blasius

----

Date: 2016-11-14

----

Link:

----

Category: Kindergarteninterne Veranstaltung

----

Text:

----

Timestart:

----

Timeend:

----

Dateend: 2016-11-18

----

Showtime: true

----

Multipledays: true

----

Draft: 1
